…
  data %>% 
    mutate(join_var = 1, 
           group = row_number()) %>% 
  left_join(tibble(z = 1:(n + 1), join_var = 1),
            multiple = "all") %>% 
  mutate(around = 2*pi*z/max(z-1)) %>% 
  mutate(x = x0 + cos(around)*r,
         y = y0 + sin(around)*r) 
  
}

tibble(x0 = 1:2, y0 = 1:2, r = 1 ) %>% 
  compute_panel_equilateral()
#> Joining with `by = join_by(join_var)`
#> # A tibble: 32 × 9
#>       x0    y0     r join_var group     z around      x     y
#>    <int> <int> <dbl>    <dbl> <int> <int>  <dbl>  <dbl> <dbl>
#>  1     1     1     1        1     1     1  0.419 1.91   1.41 
#>  2     1     1     1        1     1     2  0.838 1.67   1.74 
#>  3     1     1     1        1     1     3  1.26  1.31   1.95 
#>  4     1     1     1        1     1     4  1.68  0.895  1.99 
#>  5     1     1     1        1     1     5  2.09  0.5    1.87 
#>  6     1     1     1        1     1     6  2.51  0.191  1.59 
#>  7     1     1     1        1     1     7  2.93  0.0219 1.21 
#>  8     1     1     1        1     1     8  3.35  0.0219 0.792
#>  9     1     1     1        1     1     9  3.77  0.191  0.412
#> 10     1     1     1        1     1    10  4.19  0.500  0.134
#> # ℹ 22 more rows
```
…
